{
  "name": "k8s-bench",
  "remoteEnv": {
    "SYNC_LOCALHOST_KUBECONFIG": "true"
  },
  "dockerComposeFile": "./docker-compose.yml",
  "service": "k8s-bench",
  "workspaceFolder": "/workspace",
  "shutdownAction": "stopCompose",
  "remoteUser": "vscode",
  "extensions": [
    "streetsidesoftware.code-spell-checker",
    "dbaeumer.vscode-eslint",
    "eamodio.gitlens",
    "esbenp.prettier-vscode",
    "prettier.prettier-vscode"
  ]
}
